<svg id="background" xmlns="http://www.w3.org/2000/svg" xmlns:xlink="http://www.w3.org/1999/xlink" width="1440" height="705" viewBox="0 0 1440 705">
  <defs>
    <linearGradient id="linear-gradient" x1="0.5" x2="0.5" y2="1" gradientUnits="objectBoundingBox">
      <stop offset="0" stop-color="#299ff4"/>
      <stop offset="1" stop-color="#3da7f3" stop-opacity="0.6"/>
    </linearGradient>
    <linearGradient id="linear-gradient-2" x1="0.5" x2="0.5" y2="1" gradientUnits="objectBoundingBox">
      <stop offset="0" stop-color="#299ff4"/>
      <stop offset="1" stop-color="#1c97f0"/>
    </linearGradient>
  </defs>
  <path id="bg_blue" data-name="bg/blue" d="M0,699.227c448.122,20.492,1089.012,7.393,1440-401.948V0H0Z" fill="#299ff4"/>
  <path id="Vector_30" data-name="Vector 30" d="M0,0C76.08,197,372.891,213.5,477,0Z" transform="translate(31)" fill="url(#linear-gradient)"/>
  <path id="Vector_31" data-name="Vector 31" d="M23.225,82.809c66.022,197,323.594,213.5,413.94,0m-413.94,0h413.94m-413.94,0C18.857,69.777,5.887,28.8,0,0,124.812,6.82,255.333,26.75,437.165,82.809" transform="matrix(-0.866, 0.5, -0.5, -0.866, 1042, 485)" fill="url(#linear-gradient-2)"/>
</svg>
